<?xml version="1.0" encoding="UTF-8"?>
<svg width="235px" height="56px" viewBox="0 0 235 56" version="1.1" xmlns="http://www.w3.org/2000/svg" xmlns:xlink="http://www.w3.org/1999/xlink">
    <title>logo</title>
    <g id="Page-1" stroke="none" stroke-width="1" fill="none" fill-rule="evenodd">
        <g id="logo">
            <g id="Group" transform="translate(75.000000, 3.000000)" fill="#000000" fill-rule="nonzero" opacity="0.6">
                <path d="M10.2832031,19 L10.2832031,15.796875 L5.32226562,15.796875 L5.32226562,13.3847656 L10,13.3847656 L10,10.3183594 L5.32226562,10.3183594 L5.32226562,7.83789062 L10.2832031,7.83789062 L10.2832031,4.703125 L1.5234375,4.703125 L1.5234375,19 L10.2832031,19 Z M16.6682581,19.3808594 C18.3219039,19.3808594 19.6500289,18.921875 20.6526331,18.0039062 C21.6487269,17.0729167 22.1467737,15.8522135 22.1467737,14.3417969 C22.1467737,13.7298177 22.0621383,13.1829427 21.8928675,12.7011719 C21.7040654,12.1933594 21.4436487,11.7734375 21.1116175,11.4414062 C20.603805,10.9140625 19.5556279,10.4388021 17.9670862,10.015625 C17.9280237,10.0026042 17.8987269,9.99446615 17.8791956,9.99121094 C17.8596644,9.98795573 17.8368779,9.98307292 17.8108362,9.9765625 C17.0751591,9.78125 16.5738571,9.57617188 16.30693,9.36132812 C16.0530237,9.13346354 15.9260706,8.84700521 15.9260706,8.50195312 C15.9260706,8.14388021 16.072555,7.85742188 16.3655237,7.64257812 C16.6715133,7.41471354 17.0523727,7.30078125 17.5081019,7.30078125 C17.9573206,7.30078125 18.416305,7.39518229 18.885055,7.58398438 C19.3668258,7.78580729 19.822555,8.07226562 20.2522425,8.44335938 L20.2522425,8.44335938 L21.4729456,5.640625 C20.8414352,5.21744792 20.1741175,4.8984375 19.4709925,4.68359375 C18.8004196,4.46875 18.0517216,4.36132812 17.2248987,4.36132812 C15.760055,4.36132812 14.5751591,4.79427083 13.6702112,5.66015625 C12.7522425,6.51953125 12.2932581,7.6328125 12.2932581,9 C12.2932581,10.0546875 12.5862269,10.8880208 13.1721644,11.5 C13.7515914,12.0989583 14.7379196,12.5872396 16.1311487,12.9648438 C17.1532841,13.2382812 17.8140914,13.5019531 18.1135706,13.7558594 C18.3935185,14.0227865 18.5334925,14.390625 18.5334925,14.859375 C18.5334925,15.2890625 18.3642216,15.6438802 18.02568,15.9238281 C17.6871383,16.203776 17.260706,16.34375 16.7463831,16.34375 C16.1995081,16.34375 15.6396123,16.1809896 15.0666956,15.8554688 C14.5198206,15.5364583 13.9469039,15.0449219 13.3479456,14.3808594 L13.3479456,14.3808594 L11.5901331,17.28125 C12.3648727,18.0169271 13.1510055,18.5507812 13.9485315,18.8828125 C14.7460576,19.2148438 15.6526331,19.3808594 16.6682581,19.3808594 Z M26.8423756,19 L27.6822193,12.8183594 C27.7017506,12.6360677 27.7310475,12.3691406 27.77011,12.0175781 C27.8091725,11.6660156 27.8384693,11.3990885 27.8580006,11.2167969 C27.9035735,10.8652344 27.9524016,10.3313802 28.004485,9.61523438 C28.0891204,10.2467448 28.2681568,11.0019531 28.5415943,11.8808594 C28.6001881,12.0501302 28.6392506,12.1901042 28.6587818,12.3007812 L28.6587818,12.3007812 L30.6021412,19 L33.1997975,19 L35.1431568,12.3007812 C35.1691985,12.1835938 35.208261,12.0436198 35.2603443,11.8808594 C35.5077402,11.047526 35.6900318,10.2923177 35.8072193,9.61523438 C35.8527923,10.3704427 35.8983652,10.953125 35.9439381,11.3632812 C35.9764902,11.7799479 36.0285735,12.264974 36.1001881,12.8183594 L36.1001881,12.8183594 L36.9400318,19 L40.58261,19 L38.3853443,4.703125 L34.5181568,4.703125 L32.3404225,12.0566406 C32.1711516,12.6946615 32.0734954,13.0625 32.0474537,13.1601562 C31.9628183,13.5572917 31.9139902,13.84375 31.9009693,14.0195312 C31.8358652,13.5117188 31.708912,12.9518229 31.52011,12.3398438 C31.5070891,12.3007812 31.4810475,12.2128906 31.441985,12.0761719 L31.441985,12.0761719 L29.2837818,4.703125 L25.42636,4.703125 L23.2193287,19 L26.8423756,19 Z M57.4054543,19 L57.4054543,15.796875 L52.4445168,15.796875 L52.4445168,13.3847656 L57.1222512,13.3847656 L57.1222512,10.3183594 L52.4445168,10.3183594 L52.4445168,7.83789062 L57.4054543,7.83789062 L57.4054543,4.703125 L48.6456887,4.703125 L48.6456887,19 L57.4054543,19 Z M63.0092593,19 L63.0092593,14.859375 C63.0092593,13.6614583 63.1752749,12.7955729 63.5073062,12.2617188 C63.8458478,11.7278646 64.3731916,11.4609375 65.0893374,11.4609375 C65.6622541,11.4609375 66.0756655,11.639974 66.3295718,11.9980469 C66.583478,12.343099 66.7104312,12.9160156 66.7104312,13.7167969 L66.7104312,13.7167969 L66.7104312,19 L70.1967593,19 L70.1967593,13.3554688 C70.1967593,12.4700521 70.1414207,11.7571615 70.0307437,11.2167969 C69.9395978,10.7936198 69.7540509,10.3932292 69.474103,10.015625 C69.1681134,9.63802083 68.7677228,9.33854167 68.2729312,9.1171875 C67.7716291,8.921875 67.1987124,8.82421875 66.5541812,8.82421875 C65.7013166,8.82421875 64.9754051,9.00976562 64.3764468,9.38085938 C63.7579572,9.77148438 63.224103,10.3574219 62.7748843,11.1386719 L62.7748843,11.1386719 L62.7748843,9.13671875 L59.5912905,9.13671875 L59.5912905,19 L63.0092593,19 Z M77.499783,23.3554688 C78.4568143,23.3554688 79.2901476,23.2643229 79.999783,23.0820312 C80.7094184,22.8997396 81.2823351,22.6328125 81.718533,22.28125 C82.6234809,21.5716146 83.0759549,20.4713542 83.0759549,18.9804688 L83.0759549,18.9804688 L83.0759549,9.13671875 L79.8630643,9.13671875 L79.8630643,10.71875 C79.4724393,10.0481771 79.0101997,9.56966146 78.4763455,9.28320312 C77.9359809,8.97721354 77.2979601,8.82421875 76.562283,8.82421875 C75.8721788,8.82421875 75.2488064,8.93977865 74.6921658,9.17089844 C74.1355252,9.40201823 73.6521268,9.75195312 73.2419705,10.2207031 C72.4151476,11.1647135 72.0017361,12.4244792 72.0017361,14 C72.0017361,14.7877604 72.1026476,15.4957682 72.3044705,16.1240234 C72.5062934,16.7522786 72.7992622,17.297526 73.1833768,17.7597656 C73.9711372,18.703776 75.0160591,19.1757812 76.3181424,19.1757812 C77.0863716,19.1757812 77.7601997,19.0227865 78.3396268,18.7167969 C78.8995226,18.4238281 79.3650174,17.9648438 79.7361111,17.3398438 L79.7361111,17.3398438 L79.7361111,18.2382812 C79.7361111,19.4036458 79.5961372,20.1653646 79.3161893,20.5234375 C79.0232205,20.8815104 78.5056424,21.0605469 77.7634549,21.0605469 C77.2881945,21.0605469 76.9073351,20.9726562 76.6208768,20.796875 C76.3409288,20.6341146 76.1684028,20.3964844 76.1032986,20.0839844 L76.1032986,20.0839844 L72.499783,20.0839844 C72.5583768,21.1126302 73.0173611,21.9166667 73.8767361,22.4960938 C74.7361111,23.0690104 75.9437934,23.3554688 77.499783,23.3554688 Z M77.7243924,16.4804688 C77.014757,16.4804688 76.4483507,16.2591146 76.0251736,15.8164062 C75.608507,15.3997396 75.4001736,14.8072917 75.4001736,14.0390625 C75.4001736,13.2773438 75.608507,12.6783854 76.0251736,12.2421875 C76.4548611,11.8125 77.0212674,11.5976562 77.7243924,11.5976562 C78.4275174,11.5976562 78.9939236,11.8125 79.4236111,12.2421875 C79.8207466,12.6783854 80.0193143,13.2773438 80.0193143,14.0390625 C80.0193143,14.8138021 79.8142361,15.40625 79.4040799,15.8164062 C78.9809028,16.2591146 78.421007,16.4804688 77.7243924,16.4804688 Z M87.2344474,7.91601562 C87.5990307,7.91601562 87.9050203,7.7890625 88.1524161,7.53515625 C88.4063224,7.28776042 88.5332755,6.97526042 88.5332755,6.59765625 C88.5332755,6.2265625 88.4112052,5.92057292 88.1670646,5.6796875 C87.9229239,5.43880208 87.6120515,5.31835938 87.2344474,5.31835938 C86.8763745,5.31835938 86.5703849,5.4453125 86.3164786,5.69921875 C86.0625724,5.93359375 85.9356192,6.23307292 85.9356192,6.59765625 L85.9356192,6.59765625 L85.916088,6.59765625 C85.916088,6.96223958 86.0430411,7.26822917 86.2969474,7.515625 C86.5508536,7.78255208 86.8633536,7.91601562 87.2344474,7.91601562 Z M88.9531974,19 L88.9531974,9.13671875 L85.4766349,9.13671875 L85.4766349,19 L88.9531974,19 Z M95.0648148,19 L95.0648148,14.859375 C95.0648148,13.6614583 95.2308305,12.7955729 95.5628617,12.2617188 C95.9014034,11.7278646 96.4287471,11.4609375 97.144893,11.4609375 C97.7178096,11.4609375 98.1312211,11.639974 98.3851273,11.9980469 C98.6390336,12.343099 98.7659867,12.9160156 98.7659867,13.7167969 L98.7659867,13.7167969 L98.7659867,19 L102.252315,19 L102.252315,13.3554688 C102.252315,12.4700521 102.196976,11.7571615 102.086299,11.2167969 C101.995153,10.7936198 101.809607,10.3932292 101.529659,10.015625 C101.223669,9.63802083 100.823278,9.33854167 100.328487,9.1171875 C99.8271846,8.921875 99.254268,8.82421875 98.6097367,8.82421875 C97.7568721,8.82421875 97.0309607,9.00976562 96.4320023,9.38085938 C95.8135128,9.77148438 95.2796586,10.3574219 94.8304398,11.1386719 L94.8304398,11.1386719 L94.8304398,9.13671875 L91.6468461,9.13671875 L91.6468461,19 L95.0648148,19 Z M109.692057,19.3808594 C110.844401,19.3808594 111.817708,19.172526 112.611979,18.7558594 C113.41276,18.3457031 113.966146,17.766276 114.272135,17.0175781 L114.272135,17.0175781 L111.654948,15.9628906 C111.485677,16.3339844 111.21224,16.6269531 110.834635,16.8417969 C110.463542,17.0436198 110.017578,17.1445312 109.496745,17.1445312 C108.780599,17.1445312 108.233724,16.9361979 107.85612,16.5195312 C107.491536,16.1158854 107.299479,15.5299479 107.279948,14.7617188 L107.279948,14.7617188 L114.779948,14.7617188 L114.779948,14.5957031 C114.779948,13.6972656 114.66276,12.898112 114.428385,12.1982422 C114.19401,11.4983724 113.835938,10.8847656 113.354167,10.3574219 C112.410156,9.33528646 111.124349,8.82421875 109.496745,8.82421875 C107.901693,8.82421875 106.586589,9.32877604 105.551432,10.3378906 C104.516276,11.3665365 103.998698,12.6458333 103.998698,14.1757812 C103.998698,15.7447917 104.516276,16.9980469 105.551432,17.9355469 C106.593099,18.8990885 107.973307,19.3808594 109.692057,19.3808594 Z M111.352214,12.7988281 L107.358073,12.7988281 C107.449219,12.2128906 107.673828,11.7473958 108.031901,11.4023438 C108.376953,11.0963542 108.826172,10.9433594 109.379557,10.9433594 C109.906901,10.9433594 110.352865,11.1158854 110.717448,11.4609375 C111.082031,11.8059896 111.29362,12.2519531 111.352214,12.7988281 L111.352214,12.7988281 Z M121.760706,19.3808594 C122.91305,19.3808594 123.886357,19.172526 124.680628,18.7558594 C125.481409,18.3457031 126.034795,17.766276 126.340784,17.0175781 L126.340784,17.0175781 L123.723597,15.9628906 C123.554326,16.3339844 123.280888,16.6269531 122.903284,16.8417969 C122.53219,17.0436198 122.086227,17.1445312 121.565394,17.1445312 C120.849248,17.1445312 120.302373,16.9361979 119.924769,16.5195312 C119.560185,16.1158854 119.368128,15.5299479 119.348597,14.7617188 L119.348597,14.7617188 L126.848597,14.7617188 L126.848597,14.5957031 C126.848597,13.6972656 126.731409,12.898112 126.497034,12.1982422 C126.262659,11.4983724 125.904586,10.8847656 125.422815,10.3574219 C124.478805,9.33528646 123.192998,8.82421875 121.565394,8.82421875 C119.970341,8.82421875 118.655237,9.32877604 117.620081,10.3378906 C116.584925,11.3665365 116.067347,12.6458333 116.067347,14.1757812 C116.067347,15.7447917 116.584925,16.9980469 117.620081,17.9355469 C118.661748,18.8990885 120.041956,19.3808594 121.760706,19.3808594 Z M123.420862,12.7988281 L119.426722,12.7988281 C119.517868,12.2128906 119.742477,11.7473958 120.10055,11.4023438 C120.445602,11.0963542 120.894821,10.9433594 121.448206,10.9433594 C121.97555,10.9433594 122.421513,11.1158854 122.786097,11.4609375 C123.15068,11.8059896 123.362269,12.2519531 123.420862,12.7988281 L123.420862,12.7988281 Z M132.169199,19 L132.169199,14.9179688 C132.169199,13.9674479 132.397063,13.235026 132.852792,12.7207031 C133.315032,12.1998698 133.969329,11.9394531 134.815683,11.9394531 C134.939381,11.9394531 135.131438,11.952474 135.391855,11.9785156 C135.567636,12.0110677 135.775969,12.0664062 136.016855,12.1445312 L136.016855,12.1445312 L136.348886,8.98046875 C136.25774,8.96744792 136.18287,8.9593099 136.124277,8.95605469 C136.065683,8.95279948 136.000579,8.94791667 135.928964,8.94140625 C135.837818,8.92838542 135.697844,8.921875 135.509042,8.921875 C134.675709,8.921875 133.962818,9.13346354 133.37037,9.55664062 C132.797454,9.97330729 132.338469,10.6080729 131.993417,11.4609375 L131.993417,11.4609375 L131.993417,9.13671875 L128.712167,9.13671875 L128.712167,19 L132.169199,19 Z M141.064019,19.3808594 C142.32053,19.3808594 143.34592,19.0683594 144.140191,18.4433594 C144.914931,17.8248698 145.3023,17.0110677 145.3023,16.0019531 C145.3023,15.2207031 145.067925,14.5859375 144.599175,14.0976562 C144.117405,13.6354167 143.277561,13.235026 142.079644,12.8964844 C142.073134,12.8964844 141.920139,12.8509115 141.62066,12.7597656 C140.702691,12.5123698 140.243707,12.219401 140.243707,11.8808594 C140.243707,11.639974 140.341363,11.4609375 140.536675,11.34375 C140.738498,11.2200521 141.041233,11.1582031 141.444879,11.1582031 C141.93967,11.1582031 142.411675,11.2395833 142.860894,11.4023438 C143.336155,11.5585938 143.80816,11.796224 144.27691,12.1152344 L144.27691,12.1152344 L144.999566,9.72265625 C144.237847,9.38411458 143.57053,9.15625 142.997613,9.0390625 C142.314019,8.89583333 141.669488,8.82421875 141.064019,8.82421875 C139.814019,8.82421875 138.840712,9.11067708 138.144097,9.68359375 C137.421441,10.2630208 137.060113,11.0279948 137.060113,11.9785156 C137.060113,12.7141927 137.300998,13.313151 137.782769,13.7753906 C138.225477,14.2246094 138.977431,14.6054688 140.038629,14.9179688 C140.201389,14.9700521 140.442274,15.031901 140.761285,15.1035156 C141.679254,15.3183594 142.138238,15.6438802 142.138238,16.0800781 C142.138238,16.3404948 142.024306,16.5390625 141.796441,16.6757812 C141.575087,16.8255208 141.243056,16.9003906 140.800347,16.9003906 C140.181858,16.9003906 139.569879,16.7799479 138.96441,16.5390625 C138.352431,16.3111979 137.792535,15.9726562 137.284722,15.5234375 L137.284722,15.5234375 L136.562066,18.1796875 C137.226129,18.5833333 137.924371,18.8844401 138.656793,19.0830078 C139.389214,19.2815755 140.191623,19.3808594 141.064019,19.3808594 Z M3.4375,43 L3.4375,28.703125 L1.73828125,28.703125 L1.73828125,43 L3.4375,43 Z M8.10380498,43 L8.10380498,38.3808594 C8.10380498,37.6386719 8.14449509,37.1178385 8.22587529,36.8183594 C8.3072555,36.5188802 8.44234665,36.2519531 8.63114873,36.0175781 C8.87854456,35.7115885 9.18941696,35.4755859 9.56376592,35.3095703 C9.93811488,35.1435547 10.3531539,35.0605469 10.8088831,35.0605469 C11.6031539,35.0605469 12.190719,35.2802734 12.5715784,35.7197266 C12.9524378,36.1591797 13.1428675,36.8313802 13.1428675,37.7363281 L13.1428675,37.7363281 L13.1428675,43 L14.7053675,43 L14.7053675,36.9160156 C14.7053675,35.9199219 14.4091435,35.1419271 13.8166956,34.5820312 C13.2242477,34.0221354 12.40068,33.7421875 11.3459925,33.7421875 C10.6363571,33.7421875 10.0113571,33.8821615 9.47099248,34.1621094 C8.9306279,34.4420573 8.46838831,34.8684896 8.08427373,35.4414062 L8.08427373,35.4414062 L8.08427373,34.0644531 L6.59013311,34.0644531 L6.59013311,43 L8.10380498,43 Z M19.5376881,43 L19.5376881,35.3242188 L21.8814381,35.3242188 L21.8814381,34.0644531 L19.4986256,34.0644531 L19.4986256,31.6816406 C19.4986256,30.561849 19.583261,29.858724 19.7525318,29.5722656 C19.9218027,29.2858073 20.2310475,29.1425781 20.6802662,29.1425781 C20.8885995,29.1425781 21.0920501,29.1686198 21.2906178,29.2207031 C21.4891855,29.2727865 21.6861256,29.3541667 21.8814381,29.4648438 L21.8814381,29.4648438 L21.8814381,27.8828125 C21.6796152,27.8111979 21.4696542,27.7591146 21.2515553,27.7265625 C21.0334563,27.6940104 20.8039641,27.6777344 20.5630787,27.6777344 C19.5930266,27.6777344 18.9208261,27.9397786 18.5464771,28.4638672 C18.1721282,28.9879557 17.9849537,29.9921875 17.9849537,31.4765625 L17.9849537,31.4765625 L17.9849537,34.0644531 L16.2662037,34.0644531 L16.2662037,35.3242188 L17.9849537,35.3242188 L17.9849537,43 L19.5376881,43 Z M27.3582899,43.3808594 C27.9963108,43.3808594 28.6099175,43.2571615 29.1991103,43.0097656 C29.788303,42.7623698 30.3205295,42.4042969 30.7957899,41.9355469 C31.2580295,41.4863281 31.609592,40.9736328 31.8504774,40.3974609 C32.0913629,39.8212891 32.2118056,39.2076823 32.2118056,38.5566406 C32.2118056,37.905599 32.0913629,37.288737 31.8504774,36.7060547 C31.609592,36.1233724 31.2580295,35.6074219 30.7957899,35.1582031 C30.3205295,34.6959635 29.7915582,34.344401 29.2088759,34.1035156 C28.6261936,33.8626302 28.0093316,33.7421875 27.3582899,33.7421875 C26.6942274,33.7421875 26.0692274,33.8610026 25.4832899,34.0986328 C24.8973524,34.336263 24.3732639,34.6829427 23.9110243,35.1386719 C23.4487847,35.594401 23.0972222,36.1136068 22.8563368,36.6962891 C22.6154514,37.2789714 22.4950087,37.8990885 22.4950087,38.5566406 C22.4950087,39.2141927 22.6154514,39.8294271 22.8563368,40.4023438 C23.0972222,40.9752604 23.4487847,41.4960938 23.9110243,41.9648438 C24.3732639,42.4205729 24.89898,42.7705078 25.4881728,43.0146484 C26.0773655,43.2587891 26.7007379,43.3808594 27.3582899,43.3808594 Z M27.3582899,41.9355469 C26.4598524,41.9355469 25.6948785,41.6083984 25.0633681,40.9541016 C24.4318577,40.2998047 24.1161024,39.500651 24.1161024,38.5566406 C24.1161024,37.6126302 24.43023,36.8134766 25.0584853,36.1591797 C25.6867405,35.5048828 26.453342,35.1777344 27.3582899,35.1777344 C28.250217,35.1777344 29.0086806,35.5048828 29.6336806,36.1591797 C30.2586806,36.8134766 30.5711806,37.6126302 30.5711806,38.5566406 C30.5711806,39.500651 30.2586806,40.2998047 29.6336806,40.9541016 C29.0086806,41.6083984 28.250217,41.9355469 27.3582899,41.9355469 Z M35.979673,43 L35.979673,38.6445312 C35.979673,37.4726562 36.181496,36.5953776 36.5851418,36.0126953 C36.9887876,35.430013 37.5942564,35.1386719 38.401548,35.1386719 C38.5447772,35.1386719 38.6945168,35.1533203 38.8507668,35.1826172 C39.0070168,35.2119141 39.1730324,35.2558594 39.3488137,35.3144531 L39.3488137,35.3144531 L39.8566262,33.9375 C39.6873553,33.8789062 39.5180845,33.8349609 39.3488137,33.8056641 C39.1795428,33.7763672 39.0037616,33.7617188 38.8214699,33.7617188 C38.1574074,33.7617188 37.5942564,33.9277344 37.1320168,34.2597656 C36.6697772,34.5917969 36.2335793,35.1451823 35.823423,35.9199219 L35.823423,35.9199219 L35.823423,34.0644531 L34.4660012,34.0644531 L34.4660012,43 L35.979673,43 Z M42.7944155,43 L42.7944155,38.3808594 C42.7944155,37.6321615 42.8318504,37.1080729 42.9067202,36.8085938 C42.98159,36.5091146 43.1036603,36.2454427 43.2729312,36.0175781 C43.5138166,35.7115885 43.8116681,35.4755859 44.1664858,35.3095703 C44.5213036,35.1435547 44.9037905,35.0605469 45.3139468,35.0605469 C46.0691551,35.0605469 46.6290509,35.2802734 46.9936343,35.7197266 C47.3582176,36.1591797 47.5405093,36.8313802 47.5405093,37.7363281 L47.5405093,37.7363281 L47.5405093,43 L49.0151187,43 L49.0151187,38.3808594 C49.0151187,37.6647135 49.0541812,37.1503906 49.1323062,36.8378906 C49.2104312,36.5253906 49.3373843,36.2519531 49.5131655,36.0175781 C49.7540509,35.7115885 50.0486473,35.4755859 50.3969546,35.3095703 C50.7452619,35.1435547 51.1244937,35.0605469 51.5346499,35.0605469 C52.2898582,35.0605469 52.8497541,35.2802734 53.2143374,35.7197266 C53.5789207,36.1591797 53.7612124,36.8313802 53.7612124,37.7363281 L53.7612124,37.7363281 L53.7612124,43 L55.2748843,43 L55.2748843,36.9160156 C55.2748843,35.9199219 54.9949364,35.1419271 54.4350405,34.5820312 C53.8751447,34.0221354 53.0971499,33.7421875 52.1010562,33.7421875 C51.410952,33.7421875 50.8038556,33.8919271 50.2797671,34.1914062 C49.7556786,34.4908854 49.301577,34.9466146 48.9174624,35.5585938 C48.6570457,34.9661458 48.2729312,34.5152995 47.7651187,34.2060547 C47.2573062,33.8968099 46.6420718,33.7421875 45.9194155,33.7421875 C45.2488426,33.7421875 44.6563947,33.8821615 44.1420718,34.1621094 C43.6277489,34.4420573 43.1850405,34.8684896 42.8139468,35.4414062 L42.8139468,35.4414062 L42.8139468,34.0644531 L41.3198062,34.0644531 L41.3198062,43 L42.7944155,43 Z M61.7282986,43.3808594 C62.4184028,43.3808594 63.0417752,43.2099609 63.5984158,42.8681641 C64.1550564,42.5263672 64.6124132,42.0299479 64.9704861,41.3789062 L64.9704861,41.3789062 L64.9704861,43 L66.4548611,43 L66.4548611,34.0644531 L64.9314236,34.0644531 L64.9314236,35.7441406 C64.592882,35.0800781 64.148546,34.5804036 63.5984158,34.2451172 C63.0482856,33.9098307 62.3988716,33.7421875 61.6501736,33.7421875 C60.374132,33.7421875 59.3552518,34.1767578 58.593533,35.0458984 C57.8318143,35.9150391 57.4509549,37.0852865 57.4509549,38.5566406 C57.4509549,40.0084635 57.8432075,41.1754557 58.6277127,42.0576172 C59.4122179,42.9397786 60.4457466,43.3808594 61.7282986,43.3808594 Z M62.0505643,41.8574219 C61.1000434,41.8574219 60.3659939,41.5644531 59.8484158,40.9785156 C59.3308377,40.3925781 59.0720486,39.5592448 59.0720486,38.4785156 C59.0720486,37.4628906 59.3292101,36.671875 59.843533,36.1054688 C60.3578559,35.5390625 61.0740018,35.2558594 61.9919705,35.2558594 C62.8773872,35.2558594 63.5951606,35.5634766 64.1452908,36.1787109 C64.695421,36.7939453 64.9704861,37.6061198 64.9704861,38.6152344 C64.9704861,39.6373698 64.7116971,40.4332682 64.1941189,41.0029297 C63.6765408,41.5725911 62.9620226,41.8574219 62.0505643,41.8574219 Z M71.1602286,43 L71.1602286,35.3242188 L72.8008536,35.3242188 L72.8008536,34.0644531 L71.1602286,34.0644531 L71.1602286,30.4609375 L69.5977286,30.4609375 L69.5977286,34.0644531 L67.9571036,34.0644531 L67.9571036,35.3242188 L69.5977286,35.3242188 L69.5977286,43 L71.1602286,43 Z M75.2308305,30.8808594 C75.5433305,30.8808594 75.8070023,30.7734375 76.0218461,30.5585938 C76.2366898,30.34375 76.3441117,30.0833333 76.3441117,29.7773438 C76.3441117,29.4648438 76.2350622,29.1979167 76.0169633,28.9765625 C75.7988643,28.7552083 75.5368201,28.6445312 75.2308305,28.6445312 C74.9183305,28.6445312 74.653031,28.7535807 74.434932,28.9716797 C74.2168331,29.1897786 74.1077836,29.4518229 74.1077836,29.7578125 C74.1077836,30.0768229 74.2168331,30.34375 74.434932,30.5585938 C74.653031,30.7734375 74.9183305,30.8808594 75.2308305,30.8808594 Z M76.0120805,43 L76.0120805,34.0644531 L74.4691117,34.0644531 L74.4691117,43 L76.0120805,43 Z M83.2272136,43.3808594 C83.8652344,43.3808594 84.4788412,43.2571615 85.0680339,43.0097656 C85.6572266,42.7623698 86.1894532,42.4042969 86.6647136,41.9355469 C87.1269532,41.4863281 87.4785157,40.9736328 87.7194011,40.3974609 C87.9602865,39.8212891 88.0807292,39.2076823 88.0807292,38.5566406 C88.0807292,37.905599 87.9602865,37.288737 87.7194011,36.7060547 C87.4785157,36.1233724 87.1269532,35.6074219 86.6647136,35.1582031 C86.1894532,34.6959635 85.6604818,34.344401 85.0777995,34.1035156 C84.4951172,33.8626302 83.8782552,33.7421875 83.2272136,33.7421875 C82.5631511,33.7421875 81.9381511,33.8610026 81.3522136,34.0986328 C80.7662761,34.336263 80.2421875,34.6829427 79.779948,35.1386719 C79.3177084,35.594401 78.9661459,36.1136068 78.7252605,36.6962891 C78.484375,37.2789714 78.3639323,37.8990885 78.3639323,38.5566406 C78.3639323,39.2141927 78.484375,39.8294271 78.7252605,40.4023438 C78.9661459,40.9752604 79.3177084,41.4960938 79.779948,41.9648438 C80.2421875,42.4205729 80.7679037,42.7705078 81.3570964,43.0146484 C81.9462891,43.2587891 82.5696615,43.3808594 83.2272136,43.3808594 Z M83.2272136,41.9355469 C82.3287761,41.9355469 81.5638021,41.6083984 80.9322917,40.9541016 C80.3007813,40.2998047 79.9850261,39.500651 79.9850261,38.5566406 C79.9850261,37.6126302 80.2991537,36.8134766 80.9274089,36.1591797 C81.5556641,35.5048828 82.3222657,35.1777344 83.2272136,35.1777344 C84.1191407,35.1777344 84.8776042,35.5048828 85.5026042,36.1591797 C86.1276042,36.8134766 86.4401042,37.6126302 86.4401042,38.5566406 C86.4401042,39.500651 86.1276042,40.2998047 85.5026042,40.9541016 C84.8776042,41.6083984 84.1191407,41.9355469 83.2272136,41.9355469 Z M91.8290654,43 L91.8290654,38.3808594 C91.8290654,37.6386719 91.8697555,37.1178385 91.9511357,36.8183594 C92.032516,36.5188802 92.1676071,36.2519531 92.3564092,36.0175781 C92.603805,35.7115885 92.9146774,35.4755859 93.2890264,35.3095703 C93.6633753,35.1435547 94.0784144,35.0605469 94.5341436,35.0605469 C95.3284144,35.0605469 95.9159795,35.2802734 96.2968389,35.7197266 C96.6776982,36.1591797 96.8681279,36.8313802 96.8681279,37.7363281 L96.8681279,37.7363281 L96.8681279,43 L98.4306279,43 L98.4306279,36.9160156 C98.4306279,35.9199219 98.134404,35.1419271 97.5419561,34.5820312 C96.9495081,34.0221354 96.1259404,33.7421875 95.0712529,33.7421875 C94.3616175,33.7421875 93.7366175,33.8821615 93.1962529,34.1621094 C92.6558884,34.4420573 92.1936488,34.8684896 91.8095342,35.4414062 L91.8095342,35.4414062 L91.8095342,34.0644531 L90.3153936,34.0644531 L90.3153936,43 L91.8290654,43 Z" id="ESMEngineersInformation"></path>
            </g>
            <path d="M60.052795,14.8571429 L61,40.7619048 L55.583528,43.6081429 L54.9378882,22.6666667 L49.0652174,25.5238095 L49.795528,46.6511429 L43.916528,49.7421429 L43.5714286,28.3809524 L37.6987578,31.2380952 L38.071528,52.8151429 L32.015528,56 L32.015528,28.5714286 L60.052795,14.8571429 Z M0.568322981,15.047619 L29.931677,28.7619048 L29.931,33.925619 L6.2515528,22.6666667 L6.2515528,27.8095238 L29.931,39.619619 L29.931677,56 L0,40.7619048 L0.112,35.675619 L23.6801242,47.6190476 L23.6801242,42.0952381 L0.233,30.227619 L0.568322981,15.047619 Z M29.552795,0 L57.9689441,14.2857143 L52.9121739,16.702 L30.310559,5.52380952 L24.4378882,8.38095238 L47.6321739,19.227 L42.0241739,21.909 L18.9440994,11.4285714 L13.6397516,14.0952381 L36.0971739,24.742 L30.878882,27.2380952 L2.65217391,13.9047619 L29.552795,0 Z" id="Combined-Shape" fill="#1F9CDE"></path>
        </g>
    </g>
</svg>